…
Ontologies at the Comprehensive Antibiotic Resistance Database are freely available under
the Creative Commons CC-BY license version 4.0, https://creativecommons.org/licenses/by/4.0/

```r
# ARO - The Antibiotic Resistance Ontology that serves as the primary organizing principle 
# of the CARD.
aro <- jsonlite::fromJSON(here("scripts", "drugs", "card-ontology", "aro.json")) %>%
  rename(segment = name, aro_accession = accession, aro_description = description)
dat<- left_join(dat, aro)
dat
```

```
## # A tibble: 2,006 x 6
##    study_id segment code_identifiers code_main aro_accession
##    <chr>    <chr>   <chr>            <chr>     <chr>        
##  1 10020    ertape… ""               Drug Res… ARO:0000070  
##  2 10020    imipen… ""               Drug Res… ARO:3000170  
##  3 10020    fluoro… ""               Drug Res… <NA>         
##  4 10020    co-tri… ""               Drug Res… <NA>         
##  5 10020    tobram… ""               Drug Res… ARO:0000052  
##  6 10020    gentam… ""               Drug Res… <NA>         
##  7 10020    amoxic… A                Drug Res… ARO:0000064  
##  8 10020    amoxic… B                Drug Res… <NA>         
##  9 10020    cefuro… C                Drug Res… ARO:0000063  
## 10 10020    ceftri… D                Drug Res… ARO:0000062  
## # ... with 1,996 more rows, and 1 more variable: aro_description <chr>
```
…
